,refill_id,refill_detail_id,supplier_id,product_name,product_id,supplier_product_id,total_order_the_last_two_weeks,total_order_the_last_week,current_inventory,refill_uomsize,refill_uomdescription,base_unit_uom_description,nearest_expiry_date,upc,delivered,mif,new_store_unit_quantity,event_or_promotion_quantity,final_suggestion,forecast,minimum_inventory,refilled_suggestion,auto_suggestion,refill_uomquantity,category_id,category_name,subcategory_id,subcategory_name,total_approved,supplier_feed_back,receiving_notes
0,RF000020007170419,9659,7,Đậu Hũ Tròn NB,23,25000006,0,0,0,1.0,Box,Box,,8938506533062,False,0.9,0,0,100,0.0,0.0,0.0,0.0,100,61,Tofu,247,Tofu,,"{'delivery_date': 1493109285000, 'expiry_date': null, 'quantity': 100}",
1,RF000020007170419,9660,7,Đậu Hũ Tròn Việt Nam,24,25000007,0,0,0,1.0,Box,Box,,8938506533079,False,0.9,0,0,100,0.0,0.0,0.0,0.0,100,61,Tofu,247,Tofu,,"{'delivery_date': 1493109285000, 'expiry_date': null, 'quantity': 100}",
